…
```r
head(mmse_xsectional)
```

```
## $data
## # A tibble: 436 x 14
## # Groups:   age [73]
##    id          m_f   hand    age  educ   ses  mmse   cdr e_tiv n_wbv   asf delay
##    <chr>       <chr> <chr> <dbl> <dbl> <dbl> <dbl> <dbl> <dbl> <dbl> <dbl> <chr>
##  1 OAS1_0001_… F     R        74     2     3    29   0    1344 0.743  1.31 N/A  
##  2 OAS1_0002_… F     R        55     4     1    29   0    1147 0.81   1.53 N/A  
##  3 OAS1_0003_… F     R        73     4     3    27   0.5  1454 0.708  1.21 N/A  
##  4 OAS1_0004_… M     R        28    NA    NA    NA  NA    1588 0.803  1.10 N/A  
##  5 OAS1_0005_… M     R        18    NA    NA    NA  NA    1737 0.848  1.01 N/A  
##  6 OAS1_0006_… F     R        24    NA    NA    NA  NA    1131 0.862  1.55 N/A  
##  7 OAS1_0007_… M     R        21    NA    NA    NA  NA    1516 0.83   1.16 N/A  
##  8 OAS1_0009_… F     R        20    NA    NA    NA  NA    1505 0.843  1.17 N/A  
##  9 OAS1_0010_… M     R        74     5     2    30   0    1636 0.689  1.07 N/A  
## 10 OAS1_0011_… F     R        52     3     2    30   0    1321 0.827  1.33 N/A  
## # … with 426 more rows, and 2 more variables: mean_mmse <dbl>, .group <int>
## 
## $layers
## $layers[[1]]
## geom_point: na.rm = FALSE, alpha = 0.5
## stat_identity: na.rm = FALSE
## position_identity 
## 
## $layers[[2]]
…
